{
	"info": {
		"_postman_id": "032e10c2-d8f2-4c9d-b7ae-fe05a90b5a6a",
		"name": "cities-play",
		"schema": "https://schema.getpostman.com/json/collection/v2.1.0/collection.json"
	},
	"item": [
		{
			"name": "fetch cities",
			"request": {
				"auth": {
					"type": "bearer",
					"bearer": [
						{
							"key": "token",
							"value": "eyJhbGciOiJIUzI1NiJ9.eyJzdWIiOiJpZ29yQHNhbWFyYS5ociIsImlhdCI6MTU5MDA1NzIzNSwiZXhwIjoxNTkwMDc1MjM1fQ.fqRfA2pUTd3EF1c4bz2tCB2wCqcPwhDQ7NZkECqizZ4",
							"type": "string"
						}
					]
				},
				"method": "GET",
				"header": [],
				"url": {
					"raw": "localhost:9393/cities-play/cities",
					"host": [
						"localhost"
					],
					"port": "9393",
					"path": [
						"cities-play",
						"cities"
					]
				}
			},
			"response": []
		},
		{
			"name": "fetch cities - sort",
			"request": {
				"auth": {
					"type": "bearer",
					"bearer": [
						{
							"key": "token",
							"value": "eyJhbGciOiJIUzI1NiJ9.eyJzdWIiOiJpZ29yQHNhbWFyYS5ociIsImlhdCI6MTU5MDA1NzIzNSwiZXhwIjoxNTkwMDc1MjM1fQ.fqRfA2pUTd3EF1c4bz2tCB2wCqcPwhDQ7NZkECqizZ4",
							"type": "string"
						}
					]
				},
				"method": "GET",
				"header": [],
				"url": {
					"raw": "localhost:9393/cities-play/cities",
					"host": [
						"localhost"
					],
					"port": "9393",
					"path": [
						"cities-play",
						"cities"
					]
				}
			},
			"response": []
		},
		{
			"name": "fetch fav cities",
			"request": {
				"auth": {
					"type": "bearer",
					"bearer": [
						{
							"key": "token",
							"value": "eyJhbGciOiJIUzI1NiJ9.eyJzdWIiOiJpZ29yQHNhbWFyYS5ociIsImlhdCI6MTU5MDA1NzIzNSwiZXhwIjoxNTkwMDc1MjM1fQ.fqRfA2pUTd3EF1c4bz2tCB2wCqcPwhDQ7NZkECqizZ4",
							"type": "string"
						}
					]
				},
				"method": "GET",
				"header": [],
				"url": {
					"raw": "localhost:9393/cities-play/cities/favorites",
					"host": [
						"localhost"
					],
					"port": "9393",
					"path": [
						"cities-play",
						"cities",
						"favorites"
					]
				}
			},
			"response": []
		},
		{
			"name": "fetch fav cities - limit size",
			"request": {
				"auth": {
					"type": "bearer",
					"bearer": [
						{
							"key": "token",
							"value": "eyJhbGciOiJIUzI1NiJ9.eyJzdWIiOiJpZ29yQHNhbWFyYS5ociIsImlhdCI6MTU5MDA1NzIzNSwiZXhwIjoxNTkwMDc1MjM1fQ.fqRfA2pUTd3EF1c4bz2tCB2wCqcPwhDQ7NZkECqizZ4",
							"type": "string"
						}
					]
				},
				"method": "GET",
				"header": [],
				"url": {
					"raw": "localhost:9393/cities-play/cities/favorites",
					"host": [
						"localhost"
					],
					"port": "9393",
					"path": [
						"cities-play",
						"cities",
						"favorites"
					]
				}
			},
			"response": []
		},
		{
			"name": "fetch city",
			"request": {
				"auth": {
					"type": "bearer",
					"bearer": [
						{
							"key": "token",
							"value": "eyJhbGciOiJIUzUxMiJ9.eyJzdWIiOiJpZ29yQHNhbWFyYS5ociIsImV4cCI6MTU5MDAxMDQ5MCwiaWF0IjoxNTg5OTkyNDkwfQ.J2_l6KWkruOOJF19dqd3ddNSY5QYYr_r6c-vKLzvlpHEpLMu3sQum6tYmcbOor6J48XWRUyGUJutNPQg9qh5Pg",
							"type": "string"
						}
					]
				},
				"method": "GET",
				"header": [],
				"url": {
					"raw": "localhost:9393/cities-play/cities",
					"host": [
						"localhost"
					],
					"port": "9393",
					"path": [
						"cities-play",
						"cities"
					]
				}
			},
			"response": []
		},
		{
			"name": "fetch cities - no auth",
			"request": {
				"auth": {
					"type": "bearer",
					"bearer": [
						{
							"key": "token",
							"value": "eyJhbGciOiJIUzUxMiJ9.eyJzdWIiOiJpZ29yQHNhbWFyYS5ociIsImV4cCI6MTU5MDAxMDQ5MCwiaWF0IjoxNTg5OTkyNDkwfQ.J2_l6KWkruOOJF19dqd3ddNSY5QYYr_r6c-vKLzvlpHEpLMu3sQum6tYmcbOor6J48XWRUyGUJutNPQg9qh5Pg",
							"type": "string"
						}
					]
				},
				"method": "GET",
				"header": [],
				"url": {
					"raw": "localhost:9393/cities-play/cities",
					"host": [
						"localhost"
					],
					"port": "9393",
					"path": [
						"cities-play",
						"cities"
					]
				}
			},
			"response": []
		},
		{
			"name": "fetch cities - no auth Copy",
			"request": {
				"auth": {
					"type": "bearer",
					"bearer": [
						{
							"key": "token",
							"value": "eyJhbGciOiJIUzUxMiJ9.eyJzdWIiOiJpZ29yQHNhbWFyYS5ociIsImV4cCI6MTU5MDAxMDQ5MCwiaWF0IjoxNTg5OTkyNDkwfQ.J2_l6KWkruOOJF19dqd3ddNSY5QYYr_r6c-vKLzvlpHEpLMu3sQum6tYmcbOor6J48XWRUyGUJutNPQg9qh5Pg",
							"type": "string"
						}
					]
				},
				"method": "GET",
				"header": [],
				"url": {
					"raw": "localhost:9393/cities-play/cities",
					"host": [
						"localhost"
					],
					"port": "9393",
					"path": [
						"cities-play",
						"cities"
					]
				}
			},
			"response": []
		},
		{
			"name": "delete cities",
			"request": {
				"auth": {
					"type": "bearer",
					"bearer": [
						{
							"key": "token",
							"value": "eyJhbGciOiJIUzUxMiJ9.eyJzdWIiOiJpZ29yQHNhbWFyYS5ociIsImV4cCI6MTU5MDAxMDQ5MCwiaWF0IjoxNTg5OTkyNDkwfQ.J2_l6KWkruOOJF19dqd3ddNSY5QYYr_r6c-vKLzvlpHEpLMu3sQum6tYmcbOor6J48XWRUyGUJutNPQg9qh5Pg",
							"type": "string"
						}
					]
				},
				"method": "DELETE",
				"header": [],
				"url": {
					"raw": "localhost:9393/cities-play/cities",
					"host": [
						"localhost"
					],
					"port": "9393",
					"path": [
						"cities-play",
						"cities"
					]
				}
			},
			"response": []
		},
		{
			"name": "create city",
			"request": {
				"auth": {
					"type": "bearer",
					"bearer": [
						{
							"key": "token",
							"value": "eyJhbGciOiJIUzI1NiJ9.eyJzdWIiOiJpZ29yQHNhbWFyYS5ociIsImlhdCI6MTU5MDA1Mzg1MSwiZXhwIjoxNTkwMDcxODUxfQ.OwU6uv59PeyI9tim01hzklRgwM00LJ9o5Up3BncwZRk",
							"type": "string"
						}
					]
				},
				"method": "POST",
				"header": [],
				"body": {
					"mode": "raw",
					"raw": "{\n\t\"name\": \"Zagreb\",\n\t\"description\": \"Croatia\",\n\t\"population\": 321321321\n}",
					"options": {
						"raw": {
							"language": "json"
						}
					}
				},
				"url": {
					"raw": "localhost:9393/cities-play/cities",
					"host": [
						"localhost"
					],
					"port": "9393",
					"path": [
						"cities-play",
						"cities"
					]
				}
			},
			"response": []
		},
		{
			"name": "create city - not auth",
			"request": {
				"auth": {
					"type": "bearer",
					"bearer": [
						{
							"key": "token",
							"value": "eyJhbGciOiJIUzUxMiJ9.eyJzdWIiOiJpZ29yQHNhbWFyYS5ociIsImV4cCI6MTU5MDAxMDQ5MCwiaWF0IjoxNTg5OTkyNDkwfQ.J2_l6KWkruOOJF19dqd3ddNSY5QYYr_r6c-vKLzvlpHEpLMu3sQum6tYmcbOor6J48XWRUyGUJutNPQg9qh5Pg",
							"type": "string"
						}
					]
				},
				"method": "POST",
				"header": [],
				"body": {
					"mode": "raw",
					"raw": "{\n\t\"name\": \"TOTO\",\n\t\"description\": \"Croatia\",\n\t\"population\": 321321321\n}",
					"options": {
						"raw": {
							"language": "json"
						}
					}
				},
				"url": {
					"raw": "localhost:9393/cities-play/cities",
					"host": [
						"localhost"
					],
					"port": "9393",
					"path": [
						"cities-play",
						"cities"
					]
				}
			},
			"response": []
		},
		{
			"name": "addToFav",
			"request": {
				"auth": {
					"type": "bearer",
					"bearer": [
						{
							"key": "token",
							"value": "{{token}}",
							"type": "string"
						}
					]
				},
				"method": "PUT",
				"header": [],
				"body": {
					"mode": "raw",
					"raw": "",
					"options": {
						"raw": {
							"language": "json"
						}
					}
				},
				"url": {
					"raw": "localhost:9393/cities-play/cities/favorites/:cityId",
					"host": [
						"localhost"
					],
					"port": "9393",
					"path": [
						"cities-play",
						"cities",
						"favorites",
						":cityId"
					],
					"variable": [
						{
							"key": "cityId",
							"value": "4"
						}
					]
				}
			},
			"response": []
		},
		{
			"name": "addToFav Maja",
			"request": {
				"auth": {
					"type": "bearer",
					"bearer": [
						{
							"key": "token",
							"value": "{{token}}",
							"type": "string"
						}
					]
				},
				"method": "PUT",
				"header": [],
				"body": {
					"mode": "raw",
					"raw": "",
					"options": {
						"raw": {
							"language": "json"
						}
					}
				},
				"url": {
					"raw": "localhost:9393/cities-play/cities/favorites/:cityId",
					"host": [
						"localhost"
					],
					"port": "9393",
					"path": [
						"cities-play",
						"cities",
						"favorites",
						":cityId"
					],
					"variable": [
						{
							"key": "cityId",
							"value": "4"
						}
					]
				}
			},
			"response": []
		},
		{
			"name": "delFromFav",
			"request": {
				"auth": {
					"type": "bearer",
					"bearer": [
						{
							"key": "token",
							"value": "{{token}}",
							"type": "string"
						}
					]
				},
				"method": "DELETE",
				"header": [],
				"body": {
					"mode": "raw",
					"raw": "",
					"options": {
						"raw": {
							"language": "json"
						}
					}
				},
				"url": {
					"raw": "localhost:9393/cities-play/cities/favorites/:cityId",
					"host": [
						"localhost"
					],
					"port": "9393",
					"path": [
						"cities-play",
						"cities",
						"favorites",
						":cityId"
					],
					"variable": [
						{
							"key": "cityId",
							"value": "1"
						}
					]
				}
			},
			"response": []
		},
		{
			"name": "auth",
			"request": {
				"method": "POST",
				"header": [],
				"body": {
					"mode": "raw",
					"raw": "{\n\t\"username\": \"igor@samara.hr\",\n\t\"password\": \"samara\"\n}",
					"options": {
						"raw": {
							"language": "json"
						}
					}
				},
				"url": {
					"raw": "localhost:9393/cities-play/auth",
					"host": [
						"localhost"
					],
					"port": "9393",
					"path": [
						"cities-play",
						"auth"
					]
				}
			},
			"response": []
		},
		{
			"name": "auth Maja",
			"request": {
				"method": "POST",
				"header": [],
				"body": {
					"mode": "raw",
					"raw": "{\n\t\"username\": \"igor@samara.hr\",\n\t\"password\": \"samara\"\n}",
					"options": {
						"raw": {
							"language": "json"
						}
					}
				},
				"url": {
					"raw": "localhost:9393/cities-play/auth",
					"host": [
						"localhost"
					],
					"port": "9393",
					"path": [
						"cities-play",
						"auth"
					]
				}
			},
			"response": []
		},
		{
			"name": "register",
			"request": {
				"method": "POST",
				"header": [],
				"body": {
					"mode": "raw",
					"raw": "{\n\t\"username\": \"igor@samara.hr\",\n\t\"password\": \"samara\"\n}",
					"options": {
						"raw": {
							"language": "json"
						}
					}
				},
				"url": {
					"raw": "localhost:9393/cities-play/register",
					"host": [
						"localhost"
					],
					"port": "9393",
					"path": [
						"cities-play",
						"register"
					]
				}
			},
			"response": []
		},
		{
			"name": "api-docs",
			"request": {
				"method": "GET",
				"header": [],
				"url": {
					"raw": "localhost:9393/cities-play/v3/api-docs/",
					"host": [
						"localhost"
					],
					"port": "9393",
					"path": [
						"cities-play",
						"v3",
						"api-docs",
						""
					]
				}
			},
			"response": []
		},
		{
			"name": "health",
			"request": {
				"method": "GET",
				"header": [],
				"url": {
					"raw": "localhost:9393/cities-play/diagnostics/health",
					"host": [
						"localhost"
					],
					"port": "9393",
					"path": [
						"cities-play",
						"diagnostics",
						"health"
					]
				}
			},
			"response": []
		},
		{
			"name": "beans",
			"request": {
				"method": "GET",
				"header": [],
				"url": {
					"raw": "localhost:9393/cities-play/diagnostics/health",
					"host": [
						"localhost"
					],
					"port": "9393",
					"path": [
						"cities-play",
						"diagnostics",
						"health"
					]
				}
			},
			"response": []
		},
		{
			"name": "info",
			"request": {
				"method": "GET",
				"header": [],
				"url": {
					"raw": "localhost:9393/cities-play/diagnostics/health",
					"host": [
						"localhost"
					],
					"port": "9393",
					"path": [
						"cities-play",
						"diagnostics",
						"health"
					]
				}
			},
			"response": []
		}
	],
	"protocolProfileBehavior": {}
}
